TITLE;NAME;TYPE;TABLE;BASFLD;FLAG;DEFAULT;DEFAULT;DEFAULT;ATC;ATC;ATC;VDGS;VDGS;VDGS;DEFAULT;DEFAULT;DEFAULT;DEFAULT;DEFAULT;DEFAULT
TITLE;;;;;;METHOD;UFIS FIELD;UFIS FIELD;METHOD;UFIS FIELD;UFIS FIELD;METHOD;UFIS FIELD;UFIS FIELD;METHOD;UFIS FIELD;UFIS FIELD;METHOD;UFIS FIELD;UFIS FIELD
TITLE;;;;;;;ADID=A;ADID=D;;ADID=A;ADID=D;;ADID=A;ADID=D;;ADID=A;ADID=D;;ADID=A;ADID=D
STR_BGN;MSG;;;;;FLT-STD;;;FLT-ATC;;;FLT-VDGS;;;FLT-STD;;;FLT-STD;;
STR_BGN;BATCHFILE_IN;;;;;;;;;;;;;;;;;;;
STR_BGN;INFOBJ_FILE_IN;;;;;FIL-STD;;;;;;;;;FIL-STD;;;FIL-STD;;
DAT;ORIGIN;;;;;;;;;;;;;;;;;;;
DAT;FILENAME;;;;;;;;;;;;;;;;;;;
DAT;FILEACTION;;;;;;;;;;;;;;;;;;;
DAT;TIMESTAMP;;;;;;;;;;;;;;;;;;;
DAT;CONTENT_IN;;;;;;;;;;;;;;;;;;;
STR_END;INFOBJ_FILE_IN;;;;;;;;;;;;;;;;;;;
STR_END;BATCHFILE_IN;;;;;;;;;;;;;;;;;;;
STR_BGN;MSGSTREAM_IN;;;;;FLT-STD;;;FLT-ATC;;;FLT-VDGS;;;FLT-STD;;;FLT-STD;;
STR_BGN;INFOBJ_GENERIC;;;;;;;;;;;;;;;;;;;
HDR;MESSAGETYPE;;;;M;;;;;;;;;;;;;;;
HDR;MESSAGEORIGIN;;;;M;STD;;;ATCA;;;VDGS;;;TG;;;PG;;
HDR;TIMEID;;;;M;;;;;;;;;;;;;;;
HDR;TIMESTAMP;;;;M;;;;;;;;;;;;;;;
HDR;ACTIONTYPE;;;;M;O;;;O;;;O;;;O;;;O;;
KEY;URNO;URNO;;;C;;;;;;;;;;;;;;;
KEY;ADID;;;;C;;;;;;;;;;;;;;;
KEY;STDT;DATI;;;C;;STOA;STOD;;;;;;;;STOA;STOD;;STOA;STOD
KEY;FLNO;FLNO;;;C;;;;;;;;;;;;;;;
KEY;CSGN;;;;;;;;;;;;;;;;;;;
KEY;RKEY;;;;;;;;;;;;;;;;;;;
KEY;RTYP;;;;;;;;;;;;;;;;;;;
STR_END;INFOBJ_GENERIC;;;;;;;;;;;;;;;;;;;
STR_BGN;MSGOBJECTS;;;;;;;;;;;;;;;;;;;
STR_BGN;INFOBJ_FLIGHT;;;;;FLT-STD;;;FLT-ATC;;;FLT-VDGS;;;FLT-STD;;;FLT-STD;;
DAT;ADID;;;;;;;;;;;;;;;;;;;
DAT;FLNO;FLNO;;;;;;;;;;;;;;;;;;
DAT;JFNO;JFNO;;;;;;;;;;;;;;;;;;
DAT;ALC2;BAS;ALTTAB;ALC2;;;;;;;;;;;;;;;;
DAT;ALC3;BAS;ALTTAB;ALC3;;;;;;;;;;;;;;;;
DAT;FLTN;;;;;;;;;;;;;;;;;;;
DAT;FLNS;;;;;;;;;;;;;;;;;;;
DAT;FLTI;;;;;;;;;;;;;;;;;;;
DAT;FCLS;IGNORE;;;;;;;;;;;;;;;;;;
DAT;CSGN;;;;;;;;;;;;;;;;;;;
DAT;STOA;DATI;;;;;;XXXX;;;XXXX;;;XXXX;;;XXXX;;;XXXX
DAT;ETOA;DATI;;;;;;XXXX;;;XXXX;;;XXXX;;;XXXX;;;XXXX
DAT;ETAI;DATI;;;;;ETAE;XXXX;;ETAA;XXXX;;ETAE;XXXX;;ETAE;XXXX;;ETAE;XXXX
DAT;ETDI;DATI;;;;;XXXX;ETDE;;XXXX;ETDA;;XXXX;ETDE;;XXXX;ETDE;;XXXX;ETDE
DAT;STOD;DATI;;;;;XXXX;;;XXXX;;;XXXX;;;XXXX;;;XXXX;
DAT;ETOD;DATI;;;;;XXXX;;;XXXX;;;XXXX;;;XXXX;;;XXXX;
DAT;RKEY;NUM;;;;;;;;;;;;;;;;;;
DAT;RTYP;;;;;;;;;;;;;;;;;;;
DAT;DES3;BAS;APTTAB;APC3;;;;;;;;;;;;;;;;
DAT;DES4;BAS;APTTAB;APC4;;;;;;;;;;;;;;;;
DAT;ORG3;BAS;APTTAB;APC3;;;;;;;;;;;;;;;;
DAT;ORG4;BAS;APTTAB;APC4;;;;;;;;;;;;;;;;
DAT;FTYP;;;;;;;;;;;;;;;;;;;
DAT;REGN;BAS;ACRTAB;REGN;;;;;;;;;;;;;;;;
DAT;REM1;;;;;;;;;;;;;;;;;;;
DAT;REM2;;;;;;;;;;;;;;;;;;;
DAT;TTYP;;;;;;;;;;;;;;;;;;;
DAT;VIAN;;;;;;;;;;;;;;;;;;;
DAT;VIAL;VIAL;;;;;;;;;;;;;;;;;;
DAT;ACT3;BAS;ACTTAB;ACT3;;;;;;;;;;;;;;;;
DAT;ACT5;BAS;ACTTAB;ACT5;;;;;;;;;;;;;;;;
DAT;ONBL;DATI;;;;;ONBD;XXXX;;ONBD;XXXX;;ONBD;XXXX;;ONBD;XXXX;;ONBD;XXXX
DAT;OFBL;DATI;;;;;XXXX;OFBD;;XXXX;OFBD;;XXXX;OFBD;;XXXX;OFBD;;XXXX;OFBD
DAT;AIRB;DATI;;;;;XXXX;AIRA;;XXXX;AIRA;;;;;XXXX;AIRA;;XXXX;AIRA
DAT;LAND;DATI;;;;;LNDA;XXXX;;LNDA;XXXX;;;;;LNDA;XXXX;;LNDA;XXXX
DAT;RWYD;BAS;RWYTAB;RNAM;;;;;;;;;;;;;;;;
DAT;RWYA;BAS;RWYTAB;RNAM;;;;;;;;;;;;;;;;
DAT;TMOA;DATI;;;;;;XXXX;;TMAA;;;;;;;XXXX;;;XXXX
DAT;PAXT;;;;;;;;;;;;;;;;;;;
DAT;PAX1;;;;;;;;;;;;;;;;;;;
DAT;PAX2;;;;;;;;;;;;;;;;;;;
DAT;PAX3;;;;;;;;;;;;;;;;;;;
DAT;STYP;;;;;;;;;;;;;;;;;;;
DAT;DCD2;;;;;;;;;;;;;;;;;;;
DAT;REMP;BAS;FIDTAB;CODE;;;;;;;;;;;;;;;;
DAT;IFRA;;;;;;;;;;;;;;;;;;;
DAT;IFRD;;;;;;;;;;;;;;;;;;;
DAT;PAID;;;;;;;;;;;;;;;;;;;
DAT;SLOT;DATI;;;;;;;;;;;;;;;;;;
DAT;BAGN;;;;;;;;;;;;;;;;;;;
DAT;BAGW;;;;;;;;;;;;;;;;;
DAT;MAIL;;;;;;;;;;;;;;;;;
DAT;MTOW;;;;;;;;;;;;;;;;;
DAT;CGOT;;;;;;;;;;;;;;;;;
DAT;JCNT;;;;;;;;;;;;;;;;;
DAT;FCAL;DATI;;;;;;;;;;;;;;;;
DAT;BOAC;DATI;;;;;;;;;;;;;;;;
STR_END;INFOBJ_FLIGHT;;;;;;;;;;;;;;;;;
STR_BGN;INFOBJ_ACPOSITION;;;;;LOC-STD;;;LOC-ATC;;;LOC-VDGS;;;LOC-STD;;;LOC-STD
STR_BGN;ACPOSITIONARR;;;;;;;;;;;;;;;;;
DAT;PSTA;BAS;PSTTAB;PNAM;;;;;;;;;;;;;;
DAT;RAID;IGNORE;;;;;;;;;;;;;;;;
DAT;PTYP;IGNORE;;;;;;;;;;;;;;;;
DAT;PABS;DATI;;;;;;;;;;;;;;;;
DAT;PAES;DATI;;;;;;;;;;;;;;;;
DAT;PABA;DATI;;;;;;;;;;;;;;;;
DAT;PAEA;DATI;;;;;;;;;;;;;;;;
STR_END;ACPOSITIONARR;;;;;;;;;;;;;;;;;
STR_BGN;ACPOSITIONDEP;;;;;;;;;;;;;;;;;
DAT;PSTD;BAS;PSTTAB;PNAM;;;;;;;;;;;;;;
DAT;RAID;IGNORE;;;;;;;;;;;;;;;;
DAT;PTYP;IGNORE;;;;;;;;;;;;;;;;
DAT;PDBS;DATI;;;;;;;;;;;;;;;;
DAT;PDES;DATI;;;;;;;;;;;;;;;;
DAT;PDBA;DATI;;;;;;;;;;;;;;;;
DAT;PDEA;DATI;;;;;;;;;;;;;;;;
STR_END;ACPOSITIONDEP;;;;;;;;;;;;;;;;;
STR_END;INFOBJ_ACPOSITION;;;;;;;;;;;;;;;;;
STR_BGN;INFOBJ_BELT;;;;;LOC-STD;;;LOC-ATC;;;LOC-VDGS;;;LOC-STD;;;LOC-STD
DAT;BLT1;BAS;BLTTAB;BNAM;;;;;;;;;;;;;;
DAT;RAID;RAID;;;;;;;;;;;;;;;;
DAT;B1BS;DATI;;;;;;;;;;;;;;;;
DAT;B1ES;DATI;;;;;;;;;;;;;;;;
DAT;B1BA;DATI;;;;;;;;;;;;;;;;
DAT;B1EA;DATI;;;;;;;;;;;;;;;;
DAT;BLT2;BAS;BLTTAB;BNAM;;;;;;;;;;;;;;
DAT;B2BS;DATI;;;;;;;;;;;;;;;;
DAT;B2ES;DATI;;;;;;;;;;;;;;;;
DAT;B2BA;DATI;;;;;;;;;;;;;;;;
DAT;B2EA;DATI;;;;;;;;;;;;;;;;
STR_END;INFOBJ_BELT;;;;;;;;;;;;;;;;;
STR_BGN;INFOBJ_GATE;;;;;LOC-STD;;;LOC-ATC;;;LOC-VDGS;;;LOC-STD;;;LOC-STD
STR_BGN;GATEARR;;;;;;;;;;;;;;;;;
DAT;GTA1;BAS;GATTAB;GNAM;;;;;;;;;;;;;;
DAT;RAID;RAID;;;;;;;;;;;;;;;;
DAT;GA1B;DATI;;;;;;;;;;;;;;;;
DAT;GA1E;DATI;;;;;;;;;;;;;;;;
DAT;GA1X;DATI;;;;;;;;;;;;;;;;
DAT;GA1Y;DATI;;
DAT;GTA2;BAS;GATTAB;GNAM
DAT;GA2B;DATI;;
DAT;GA2E;DATI;;
DAT;GA2X;DATI;;
DAT;GA2Y;DATI;;
STR_END;GATEARR;;;
STR_BGN;GATEDEP;;;
DAT;GTD1;BAS;GATTAB;GNAM
DAT;RAID;RAID;;
DAT;GD1B;DATI;;
DAT;GD1E;DATI;;
DAT;GD1X;DATI;;
DAT;GD1Y;DATI;;
DAT;GTD2;BAS;GATTAB;GNAM
DAT;GD2B;DATI;;
DAT;GD2E;DATI;;;;;;;;;;;;;;;;
DAT;GD2X;DATI;;;;;;;;;;;;;;;;
DAT;GD2Y;DATI;;;;;;;;;;;;;;;;
STR_END;GATEDEP;;;;;;;;;;;;;;;;;
STR_END;INFOBJ_GATE;;;;;;;;;;;;;;;;;
STR_BGN;INFOBJ_COUNTER;;;;;CCA-STD;;;CCA-ATC;;;CCA-VDGS;;;CCA-STD;;;CCA-STD
DAT;CKIC;BAS;CICTAB;CNAM;;;;;;;;;;;;;;
DAT;RAID;RAID;;; ;;;;;;;;;;;;;
DAT;CTYP;;;;;;;;;;;;;;;;;
DAT;CKIT;;;;;;;;;;;;;;;;;
DAT;CKBS;DATI;;;;;;;;;;;;;;;;
DAT;CKES;DATI;;;;;;;;;;;;;;;;
DAT;CKBA;DATI;;;;;;;;;;;;;;;;
DAT;CKEA;DATI;;;;;;;;;;;;;;;;
DAT;DISP;;;;;;;;;;;;;;;;;
DAT;REMA;;;;;;;;;;;;;;;;;
DAT;FLNU;FLNU;;;;;;;;;;;;;;;;
DAT;URNO;URNO;;;;;;;;;;;;;;;;
STR_END;INFOBJ_COUNTER;;;;;;;;;;;;;;;;;
STR_BGN;INFOBJ_VDGS;;;;;FLT-STD;;;FLT-ATC;;;FLT-VDGS;;;FLT-STD;;;FLT-STD
STR_BGN;VDGSARR;;;;;;;;;;;;;;;;;
DAT;TOID;TOID;;;;;;;;;;;XXXX;XXXX;;;;
DAT;PSTA;BAS;PSTTAB;PNAM;;;;;;;;;;;;;;
DAT;ACT5;BAS;ACTTAB;ACT5;;;;;;;;;;;;;;
DAT;FTYP;;;;;;;;;;;;;;;;;
DAT;LAND;DATI;;;;;;;;;;;;;;;;
DAT;ONBL;DATI;;;;;;;;;;;ONBS;ONBS;;;;
STR_END;VDGSARR;;;;;;;;;;;;;;;;;
STR_BGN;VDGSDEP;;;;;;;;;;;;;;;;;
DAT;TOID;TOID;;;;;;;;;;;XXXX;XXXX;;;;
DAT;PSTD;BAS;PSTTAB;PNAM;;;;;;;;;;;;;;
DAT;ACT5;BAS;ACTTAB;ACT5;;;;;;;;;;;;;;
DAT;FTYP;;;;;;;;;;;;;;;;;
DAT;TIFD;DATI;;;;;;;;;;;;;;;;
DAT;OFBL;DATI;;;;;;;;;;;OFBS;OFBS;;;;
STR_END;VDGSDEP;;;;;;;;;;;;;;;;;
STR_END;INFOBJ_VDGS;;;;;;;;;;;;;;;;;
STR_BGN;INFOBJ_LOUNGE;;;;;LOC-STD;;;LOC-ATC;;;LOC-VDGS;;;LOC-STD;;;LOC-STD
DAT;RAID;RAID;;;;;;;;;;;;;;;;
DAT;WRO1;BAS;WROTAB;WNAM;;;;;;;;;;;;;;
DAT;WRO2;BAS;WROTAB;WNAM;;;;;;;;;;;;;;
STR_END;INFOBJ_LOUNGE;;;;;;;;;;;;;;;;;
STR_BGN;INFOBJ_EXIT;;;;;LOC-STD;;;LOC-ATC;;;LOC-VDGS;;;LOC-STD;;;LOC-STD
DAT;RAID;RAID;;;;;;;;;;;;;;;;
DAT;EXT1;BAS;EXTTAB;ENAM;;;;;;;;;;;;;;
DAT;EXT2;BAS;EXTTAB;ENAM;;;;;;;;;;;;;;
STR_END;INFOBJ_EXIT;;;;;;;;;;;;;;;;;
STR_BGN;STATIC;;;;;;;;;;;;;;;;;
STR_BGN;RESOURCES;;;;;;;;;;;;;;;;;
STR_BGN;COMMON_COUNTERS;;;;;CCA-STD;;;CCA-ATC;;;CCA-VDGS;;;CCA-STD;;;CCA-STD
DAT;CKIC;BAS;CICTAB;CNAM;;;;;;;;;;;;;;
DAT;RAID;RAID;;;;;;;;;;;;;;;;
DAT;ALCD;;;;;;;;;;;;;;;;;
DAT;HANM;IGNORE;;;;;;;;;;;;;;;;
DAT;CTYP;;;;;;;;;;;;;;;;;
DAT;CKIT;;;;;;;;;;;;;;;;;
DAT;CKBS;DATI;;;;;;;;;;;;;;;;
DAT;CKES;DATI;;;;;;;;;;;;;;;;
DAT;CKBA;DATI;;;;;;;;;;;;;;;;
DAT;CKEA;DATI;;;;;;;;;;;;;;;;
DAT;DISP;;;;;;;;;;;;;;;;;
DAT;REMA;;;;;;;;;;;;;;;;;
DAT;FLNU;FLNU;;;;;;;;;;;;;;;;
DAT;URNO;URNO;;;;;;;;;;;;;;;;
STR_END;COMMON_COUNTERS;;;;;;;;;;;;;;;;;;
STR_BGN;ACPOSITIONS;;;;;BLK-STD;;;BLK-ATC;;;BLK-VDGS;;;BLK-STD;;;BLK-STD;
STR_BGN;STATIC_ACPOSITION;;;;;;;;;;;;;;;;;;
DAT;PSID;BAS;PSTTAB;PNAM;;;PNAM;;;PNAM;;;PNAM;;;PNAM;;;PNAM
DAT;PSBS;DATI;;;;;NAFR;;;NAFR;;;NAFR;;;NAFR;;;NAFR
DAT;PSES;DATI;;;;;NATO;;;NATO;;;NATO;;;NATO;;;NATO
DAT;REMA;;;;;;RESN;;;RESN;;;RESN;;;RESN;;;RESN
DAT;RCID;;;;;;XXXX;;;XXXX;;;XXXX;;;XXXX;;;XXXX
DAT;DGRP;;;;;;DAYS;;;DAYS;;;DAYS;;;DAYS;;;DAYS
DAT;SOFF;TIMS;;;;;TIFR;;;TIFR;;;TIFR;;;TIFR;;;TIFR
DAT;EOFF;TIMS;;;;;TITO;;;TITO;;;TITO;;;TITO;;;TITO
STR_END;STATIC_ACPOSITION;;;;;;;;;;;;;;;;;;
STR_END;ACPOSITIONS;;;;;;;;;;;;;;;;;;
STR_BGN;BELTS;;;;;BLK-STD;;;BLK-ATC;;;BLK-VDGS;;;BLK-STD;;;BLK-STD;
STR_BGN;STATIC_BELT;;;;;;;;;;;;;;;;;;
DAT;BBID;BAS;BLTTAB;BNAM;;;BNAM;;;BNAM;;;BNAM;;;BNAM;;;BNAM
DAT;BBBS;DATI;;;;;NAFR;;;NAFR;;;NAFR;;;NAFR;;;NAFR
DAT;BBES;DATI;;;;;NATO;;;NATO;;;NATO;;;NATO;;;NATO
DAT;REMA;;;;;;RESN;;;RESN;;;RESN;;;RESN;;;RESN
DAT;RCID;;;;;;XXXX;;;XXXX;;;XXXX;;;XXXX;;;XXXX
DAT;DGRP;;;;;;DAYS;;;DAYS;;;DAYS;;;DAYS;;;DAYS
DAT;SOFF;TIMS;;;;;TIFR;;;TIFR;;;TIFR;;;TIFR;;;TIFR
DAT;EOFF;TIMS;;;;;TITO;;;TITO;;;TITO;;;TITO;;;TITO
STR_END;STATIC_BELT;;;;;;;;;;;;;;;;;;
STR_END;BELTS;;;;;;;;;;;;;;;;;;
STR_BGN;GATE;;;;;BLK-STD;;;BLK-ATC;;;BLK-VDGS;;;BLK-STD;;;BLK-STD;
STR_BGN;STATIC_GATE;;;;;;;;;;;;;;;;;;
DAT;GTID;BAS;GATTAB;GNAM;;;GNAM;;;GNAM;;;GNAM;;;GNAM;;;GNAM
DAT;GTBS;DATI;;;;;NAFR;;;NAFR;;;NAFR;;;NAFR;;;NAFR
DAT;GTES;DATI;;;;;NATO;;;NATO;;;NATO;;;NATO;;;NATO
DAT;REMA;;;;;;RESN;;;RESN;;;RESN;;;RESN;;;RESN
DAT;RCID;;;;;;XXXX;;;XXXX;;;XXXX;;;XXXX;;;XXXX
DAT;DGRP;;;;;;DAYS;;;DAYS;;;DAYS;;;DAYS;;;DAYS
DAT;SOFF;TIMS;;;;;TIFR;;;TIFR;;;TIFR;;;TIFR;;;TIFR
DAT;EOFF;TIMS;;;;;TITO;;;TITO;;;TITO;;;TITO;;;TITO
STR_END;STATIC_GATE;;;;;;;;;;;;;;;;;;
STR_END;GATE;;;;;;;;;;;;;;;;;;
STR_BGN;COUNTERS;;;;;BLK-STD;;;BLK-ATC;;;BLK-VDGS;;;BLK-STD;;;BLK-STD;
STR_BGN;STATIC_COUNTER;;;;;;;;;;;;;;;;;;
DAT;CKIC;BAS;CICTAB;CNAM;;;CNAM;;;CNAM;;;CNAM;;;CNAM;;;CNAM
DAT;CKIT;IGNORE;;;;;;;;;;;;;;;;;
DAT;CKBS;DATI;;;;;NAFR;;;NAFR;;;NAFR;;;NAFR;;;NAFR
DAT;CKES;DATI;;;;;NATO;;;NATO;;;NATO;;;NATO;;;NATO
DAT;REMA;;;;;;RESN;;;RESN;;;RESN;;;RESN;;;RESN
DAT;RCID;;;;;;XXXX;;;XXXX;;;XXXX;;;XXXX;;;XXXX
DAT;DGRP;;;;;;DAYS;;;DAYS;;;DAYS;;;DAYS;;;DAYS
DAT;SOFF;TIMS;;;;;TIFR;;;TIFR;;;TIFR;;;TIFR;;;TIFR
DAT;EOFF;TIMS;;;;;TITO;;;TITO;;;TITO;;;TITO;;;TITO
STR_END;STATIC_COUNTER;;;;;;;;;;;;;;;;;;
STR_END;COUNTERS;;;;;;;;;;;;;;;;;;
STR_END;RESOURCES;;;;;;;;;;;;;;;;;;
STR_END;STATIC;;;;;;;;;;;;;;;;;;
STR_BGN;CONCAT;;;;;;;;;;;;;;;;;;
STR_BGN;TOWINGS;;;;;TOW-STD;;;TOW-ATC;;;TOW-VDGS;;;TOW-STD;;;TOW-STD;
DAT;TOID;TOID;;;;;;;;;;;;;;;;;
DAT;TWTP;;;;;;FTYP;;;;;;;;;FTYP;;;FTYP
DAT;PSTD;BAS;PSTTAB;PNAM;;;;;;;;;;;;;;;
DAT;PSTA;BAS;PSTTAB;PNAM;;;;;;;;;;;;;;;
DAT;SCHS;DATI;;;;;STOD;;;;;;;;;STOD;;;STOD
DAT;SCHE;DATI;;;;;STOA;;;;;;;;;STOA;;;STOA
DAT;ACTS;DATI;;;;;OFBD;;;;;;OFBD;;;OFBD;;;OFBD
DAT;ACTE;DATI;;;;;ONBD;;;;;;ONBD;;;ONBD;;;ONBD
STR_END;TOWINGS;;;;;;;;;;;;;;;;;;
STR_END;CONCAT;;;;;;;;;;;;;;;;;;
STR_BGN;BULKDATA;;;;;;;;;;;;;;;;;
STR_BGN;METAR;;;;;MET-STD;;;MET-STD;;;MET-STD;;;MET-STD;;;MET-STD
DAT;LOCATION;;;;;;LOCA;;;;;;;;;;;
DAT;TEMP;;;;;;TEMP;;;;;;;;;;;
DAT;CODE;;;;;;CODE;;;;;;;;;;;
DAT;METARCODE;;;;;;META;;;;;;;;;;;
DAT;TIME;;;;;;TIME;;;;;;;;;;;
DAT;WINDSPEED;;;;;;WIND;;;;;;;;;;;
DAT;WINDDIR;;;;;;WDIR;;;;;;;;;;;
DAT;VISIBILITY;;;;;;VISI;;;;;;;;;;;
STR_END;METAR;;;;;;;;;;;;;;;;;
STR_BGN;SITA;;;;;SITA-STD;;;SITA-STD;;;SITA-STD;;;SITA-STD;;;SITA-STD
DAT;FILE_NAME;;;;;;;;;;;;;;;;;
DAT;CONTENT;;;;;;;;;;;;;;;;;
STR_END;SITA;;;;;;;;;;;;;;;;;
STR_BGN;AFTN;;;;;AFTN-STD;;;AFTN-STD;;;AFTN-STD;;;AFTN-STD;;;AFTN-STD
DAT;FILE_NAME
DAT;CONTENT
STR_END;AFTN
STR_END;BULKDATA
STR_END;MSGOBJECTS
STR_END;MSGSTREAM_IN
STR_END;MSG
