#---------------------------------------------------------------------------------------------------#
#           /ceda/conf/g2sac1.csv v1.0 2014/12/15 10:00 SIN                                         #
#---------------------------------------------------------------------------------------------------#
#ACTIVE;RulGrp;Srctab;SrcKey;Srcfld;Srctyp;Destab;DesKey;Desfld;Deslen;Destyp;Operate;Con1;Con2;con3
#Y;1;AFTTAB;URNO;URNO;NUMBER;T1_SAC_ALCS;SEQUENCE_NUMBER;SEQUENCE_NUMBER;22;NUMBER;;;;
Y;1;AFTTAB;URNO;CDAT;DATE;T1_SAC_ALCS;UREF;ROW_DATE_TIME;100;DATE;CURRENTTIME;DATELOC;;
Y;1;AFTTAB;URNO;FTYP;;T1_SAC_ALCS;UREF;ACTION_CODE;2;NUMBER;ACTION_CODE;;;
Y;1;AFTTAB;URNO;FLNO;;T1_SAC_ALCS;UREF;FLIGHT_NUMBER;5;;;;;
Y;1;AFTTAB;URNO;ALC3;;T1_SAC_ALCS;UREF;CARRIER_CODE;3;;;;;
Y;1;AFTTAB;URNO;STOA;;T1_SAC_ALCS;UREF;ORIGINAL_FLIGHT_DATE;8;;TIMEFORMAT;DATELOC;YEAR_MON_DAY;
Y;1;AFTTAB;URNO;STOA;;T1_SAC_ALCS;UREF;ORIGINAL_FLIGHT_TIME;4;;TIMEFORMAT;DATELOC;HOUR_MIN;
Y;1;AFTTAB;URNO;TIFA;;T1_SAC_ALCS;UREF;LATEST_FLIGHT_DATE;8;;TIMEFORMAT;DATELOC;YEAR_MON_DAY;
Y;1;AFTTAB;URNO;TIFA;;T1_SAC_ALCS;UREF;LATEST_FLIGHT_TIME;4;;TIMEFORMAT;DATELOC;HOUR_MIN;
Y;1;AFTTAB;URNO;FLTI;;T1_SAC_ALCS;UREF;FLIGHT_SECTOR;1;;;;;
Y;1;AFTTAB;URNO;REMP;;T1_SAC_ALCS;UREF;OPS_REMARK;3;;;;;
Y;1;AFTTAB;URNO;URNO;;T1_SAC_ALCS;UREF;PRIMARY_SORT_DEST;22;;;;;
Y;1;AFTTAB;URNO;ACT3;;T1_SAC_ALCS;UREF;EQUIPMENT;3;;;;;
Y;1;AFTTAB;URNO;VIAL;;T1_SAC_ALCS;UREF;DEST_CITY_1;3;;VIA;;;
Y;1;AFTTAB;URNO;VIAL;;T1_SAC_ALCS;UREF;DEST_CITY_2;3;;VIA;;;
Y;1;AFTTAB;URNO;VIAL;;T1_SAC_ALCS;UREF;DEST_CITY_3;3;;VIA;;;
Y;1;AFTTAB;URNO;VIAL;;T1_SAC_ALCS;UREF;DEST_CITY_4;3;;VIA;;;
Y;1;AFTTAB;URNO;VIAL;;T1_SAC_ALCS;UREF;DEST_CITY_5;3;;VIA;;;
Y;1;AFTTAB;URNO;REGN;;T1_SAC_ALCS;UREF;REG;12;;;;;
Y;1;AFTTAB;URNO;URNO;;T1_SAC_ALCS;UREF;UREF;22;NUMBER;;;;
#ACTIVE;RulGrp;Srctab;SrcKey;Srcfld;Srctyp;Destab;DesKey;Desfld;Deslen;Destyp;Operate;Con1;Con2;con3
#Y;2;AFTTAB;URNO;URNO;NUMBER;T1_SAC_ALCS;SEQUENCE_NUMBER;SEQUENCE_NUMBER;22;NUMBER;;;;
Y;2;AFTTAB;URNO;CDAT;DATE;T1_SAC_ALCS;UREF;ROW_DATE_TIME;100;DATE;CURRENTTIME;DATELOC;;
Y;2;AFTTAB;URNO;FTYP;;T1_SAC_ALCS;UREF;ACTION_CODE;2;NUMBER;ACTION_CODE;;;
Y;2;AFTTAB;URNO;FLNO;;T1_SAC_ALCS;UREF;FLIGHT_NUMBER;5;;;;;
Y;2;AFTTAB;URNO;ALC3;;T1_SAC_ALCS;UREF;CARRIER_CODE;3;;;;;
Y;2;AFTTAB;URNO;STOA;;T1_SAC_ALCS;UREF;ORIGINAL_FLIGHT_DATE;8;;TIMEFORMAT;DATELOC;YEAR_MON_DAY;
Y;2;AFTTAB;URNO;STOA;;T1_SAC_ALCS;UREF;ORIGINAL_FLIGHT_TIME;4;;TIMEFORMAT;DATELOC;HOUR_MIN;
Y;2;AFTTAB;URNO;TIFA;;T1_SAC_ALCS;UREF;LATEST_FLIGHT_DATE;8;;TIMEFORMAT;DATELOC;YEAR_MON_DAY;
Y;2;AFTTAB;URNO;TIFA;;T1_SAC_ALCS;UREF;LATEST_FLIGHT_TIME;4;;TIMEFORMAT;DATELOC;HOUR_MIN;
Y;2;AFTTAB;URNO;FLTI;;T1_SAC_ALCS;UREF;FLIGHT_SECTOR;1;;;;;
Y;2;AFTTAB;URNO;REMP;;T1_SAC_ALCS;UREF;OPS_REMARK;3;;;;;
Y;2;AFTTAB;URNO;URNO;;T1_SAC_ALCS;UREF;PRIMARY_SORT_DEST;22;;;;;
Y;2;AFTTAB;URNO;ACT3;;T1_SAC_ALCS;UREF;EQUIPMENT;3;;;;;
Y;2;AFTTAB;URNO;VIAL;;T1_SAC_ALCS;UREF;DEST_CITY_1;3;;VIA;;;
Y;2;AFTTAB;URNO;VIAL;;T1_SAC_ALCS;UREF;DEST_CITY_2;3;;VIA;;;
Y;2;AFTTAB;URNO;VIAL;;T1_SAC_ALCS;UREF;DEST_CITY_3;3;;VIA;;;
Y;2;AFTTAB;URNO;VIAL;;T1_SAC_ALCS;UREF;DEST_CITY_4;3;;VIA;;;
Y;2;AFTTAB;URNO;VIAL;;T1_SAC_ALCS;UREF;DEST_CITY_5;3;;VIA;;;
Y;2;AFTTAB;URNO;REGN;;T1_SAC_ALCS;UREF;REG;12;;;;;
Y;2;AFTTAB;URNO;URNO;;T1_SAC_ALCS;UREF;UREF;22;NUMBER;;;;
