#---------------------------------------------------------------------------------------------------#
#           /ceda/conf/g3maili.csv v1.0 2014/12/15 10:00 SIN                                        #
#---------------------------------------------------------------------------------------------------#
#------------------------------------------------------------------------------------------------------------#
# mapping from OALTABLE to AFTTAB for arrival flight 										     #
# ACTIVE;RulGrp;Srctab;SrcKey;Srcfld;Srctyp;Destab;DesKey;Desfld;Deslen;Destyp;Operate;Con1;Con2;con3;note   #
#------------------------------------------------------------------------------------------------------------#
#Y;5;OALTABLE;URNO;URNO;;AFTTAB;URNO;URNO;10;NUMBER;INVSEQUENCE;InvArrDep;100;NOTNULL;;
#Y;5;OALTABLE;URNO;URNO;;AFTTAB;URNO;URNO;10;NUMBER;;;;NOTNULL;;
Y;5;OALTABLE;URNO;URNO;;AFTTAB;URNO;ADID;1;VARCHAR;FIXVALUE;A;;NOTNULL;;;; arrival 
Y;5;OALTABLE;URNO;IATA;;AFTTAB;URNO;ALC2;2;;;;;;;; airline iata 
Y;5;OALTABLE;URNO;FIN;;AFTTAB;URNO;FINN;12;;;;;
Y;5;OALTABLE;URNO;REG;;AFTTAB;URNO;REGN;12;VARCHAR;REMOVECHAR;-;;;;
Y;5;OALTABLE;URNO;TYP;;AFTTAB;URNO;ACT3;3;VARCHAR;;;;;;;;aircraft Type
Y;5;OALTABLE;URNO;AFLT;;AFTTAB;URNO;FLTN;3;VARCHAR;;;;;;;;arrival flight number FLTN not exist FLNU
Y;5;OALTABLE;URNO;APAX;;AFTTAB;URNO;PAXT;3;VARCHAR;;;;;;;  arrival passenger 
Y;5;OALTABLE;URNO;POD;;AFTTAB;URNO;STOD;14;UFISDATE;;;;;;;; UTC time 
Y;5;OALTABLE;URNO;GATE;;AFTTAB;URNO;PSTA;5;VARCHAR;;;;;;;; 
Y;5;OALTABLE;URNO;REMARK;;AFTTAB;URNO;REM1;256;VARCHAR;;;;;;;;
#--- complicated convert 
Y;5;OALTABLE;URNO;URNO;;AFTTAB;URNO;FLNO;9;VARCHAR;MAILMERGE;IATA,AFLT;3,4;;;; 
Y;5;OALTABLE;URNO;URNO;;AFTTAB;URNO;PFNO;9;VARCHAR;MAILMERGE;PAIRLINE,AFLT;3,4;;;; 
Y;5;OALTABLE;URNO;URNO;;AFTTAB;URNO;STOA;14;UFISDATE;MAILMERGE;AOPS,STA;8,4;;;;; STA : local time 
#---- mapping ETA to EIBN, refer UFIS-7639, UFIS-7622
Y;5;OALTABLE;URNO;URNO;;AFTTAB;URNO;EIBN;14;UFISDATE;MAILMERGE;AOPS,ETA;8,4;;;;; ETA : local time
#---
Y;5;OALTABLE;URNO;URNO;;AFTTAB;URNO;DES3;5;VARCHAR;FIXVALUE;HOPO;;;;;;    
Y;5;OALTABLE;URNO;FROM;;AFTTAB;URNO;ORG3;5;VARCHAR;MAILVIAL;;;;;;; FROM use ""/"" to separate multiple destinations
Y;5;OALTABLE;URNO;FROM;;AFTTAB;URNO;VIAL;1024;VARCHAR;MAILVIAL;;;;;;; FROM use ""/"" to separate multiple destinations
#------------------------------------------------------------------------------------------------------------#
# mapping from OALTABLE to AFTTAB for departure flight 										         #
# ACTIVE;RulGrp;Srctab;SrcKey;Srcfld;Srctyp;Destab;DesKey;Desfld;Deslen;Destyp;Operate;Con1;Con2;con3;note   #
#------------------------------------------------------------------------------------------------------------#
#Y;6;OALTABLE;URNO;URNO;;AFTTAB;URNO;URNO;10;NUMBER;INVSEQUENCE;InvArrDep;100;NOTNULL;;
#Y;6;OALTABLE;URNO;URNO;;AFTTAB;URNO;URNO;10;NUMBER;;;;NOTNULL;;
Y;6;OALTABLE;URNO;URNO;;AFTTAB;URNO;ADID;1;VARCHAR;FIXVALUE;D;;NOTNULL;;;; departure 
Y;6;OALTABLE;URNO;IATA;;AFTTAB;URNO;ALC2;2;;;;;;;; airline iata 
Y;6;OALTABLE;URNO;FIN;;AFTTAB;URNO;FINN;12;;;;;
Y;6;OALTABLE;URNO;REG;;AFTTAB;URNO;REGN;12;VARCHAR;REMOVECHAR;-;;;;
Y;6;OALTABLE;URNO;TYP;;AFTTAB;URNO;ACT3;3;VARCHAR;;;;;;;;aircraft Type
Y;6;OALTABLE;URNO;DFLT;;AFTTAB;URNO;FLTN;3;VARCHAR;;;;;;;;departure flight number 
Y;6;OALTABLE;URNO;DPAX;;AFTTAB;URNO;PAXT;3;VARCHAR;;;;;;;;departure passenger
Y;6;OALTABLE;URNO;GATE;;AFTTAB;URNO;PSTD;5;VARCHAR;;;;;;;; 
Y;6;OALTABLE;URNO;REMARK;;AFTTAB;URNO;REM1;256;VARCHAR;;;;;;;;
#--- complicated convert 
Y;6;OALTABLE;URNO;URNO;;AFTTAB;URNO;FLNO;9;VARCHAR;MAILMERGE;IATA,DFLT;3,4;;;; 
Y;6;OALTABLE;URNO;URNO;;AFTTAB;URNO;PFNO;9;VARCHAR;MAILMERGE;PAIRLINE,DFLT;3,4;;;; 
Y;6;OALTABLE;URNO;URNO;;AFTTAB;URNO;STOD;14;UFISDATE;MAILMERGE;DOPS,STD;8,4;;;;; STD : local time 
#---- mapping ETD to EOBN, refer UFIS-7639, UFIS-7622
Y;6;OALTABLE;URNO;URNO;;AFTTAB;URNO;EOBN;14;UFISDATE;MAILMERGE;DOPS,ETD;8,4;;;;; ETD : local time
#---
Y;6;OALTABLE;URNO;URNO;;AFTTAB;URNO;ORG3;5;VARCHAR;FIXVALUE;HOPO;;;;;;  
Y;6;OALTABLE;URNO;DEST;;AFTTAB;URNO;DES3;5;VARCHAR;MAILVIAL;;;;;;; DEST use ""/"" to separate multiple destinations
Y;6;OALTABLE;URNO;DEST;;AFTTAB;URNO;VIAL;1024;VARCHAR;MAILVIAL;;;;;;; 
