#------------------------------------------------------------------------------------------------------------#
# mapping from AFTTAB to AFTTAB (update PALP, PALB, PALL, PALN, PFNO)                                                                             # 
# ACTIVE;RulGrp;Srctab;SrcKey;Srcfld;Srctyp;Destab;DesKey;Desfld;Deslen;Destyp;Operate;Con1;Con2;con3;note   #
#------------------------------------------------------------------------------------------------------------#
Y;1;AFTTAB;URNO;URNO;;AFTTAB;URNO;PALP;3;VARCHAR2;PDFNMAPPING;FNM.TYPE;PUBLIC_CARRIER;;;;;;;
Y;1;AFTTAB;URNO;URNO;;AFTTAB;URNO;PALB;3;VARCHAR2;PDFNMAPPING;FNM.TYPE;BAGGAGE_CARRIER;;;;;;;
Y;1;AFTTAB;URNO;URNO;;AFTTAB;URNO;PALL;3;VARCHAR2;PDFNMAPPING;FNM.TYPE;LOGO_CARRIER;;;;;;;
Y;1;AFTTAB;URNO;URNO;;AFTTAB;URNO;PALN;3;VARCHAR2;PDFNMAPPING;FNM.TYPE;NAME_CARRIER;;;;;;;
Y;1;AFTTAB;URNO;URNO;;AFTTAB;URNO;PFNO;9;VARCHAR2;PDFNMAPPING;FNM.TYPE;PUBLIC_CARRIER;;;;;;;;; AFTTAB.PALP + AFTTAB.FLTN
#------------------------------------------------------------------------------------------------------------#
# mapping from AFTTAB -> AFTTAB reference on FNMTAB             									         #
# ACTIVE;RulGrp;Srctab;SrcKey;Srcfld;Srctyp;Destab;DesKey;Desfld;Deslen;Destyp;Operate;Con1;Con2;con3;note   #
#------------------------------------------------------------------------------------------------------------#
#Y;2;FNMTAB;URNO;TYPE;;AFTTAB;URNO;PALP;3;NUMBER;PDFNMAPPING;TYPE=PUBLIC_CARRIER;;;;;;;
#Y;2;FNMTAB;URNO;TYPE;;AFTTAB;URNO;PALB;3;NUMBER;PDFNMAPPING;TYPE=BAGGAGE_CARRIER;;;;;;;
#Y;2;FNMTAB;URNO;TYPE;;AFTTAB;URNO;PALL;3;NUMBER;PDFNMAPPING;TYPE=LOGO_CARRIER;;;;;;;
#Y;2;FNMTAB;URNO;TYPE;;AFTTAB;URNO;PALN;3;NUMBER;PDFNMAPPING;TYPE=NAME_CARRIER;;;;;;;
#Y;2;FNMTAB;URNO;TYPE;;AFTTAB;URNO;PFNO;9;NUMBER;PDFNMAPPING;LOOKUP_CARRIER;;;;;;;;; AFT.PALP + AFT.FLTN
#---- Use whhen public displayed flight number is different from actual flight number (from Score).

